{
  "zenodoId": 4687307,
  "doi": "10.5281/zenodo.4687307",
  "profile": "raster-data-resource",
  "name": "Shallow geothermal energy potential",
  "title": "Shallow Geothermal Energy potential GPOT",
  "description": "Data show the theorethical energy potential for the EUSALP region computed with r.green.gshp.theoretical.",
  "version": "0.1",
  "created": "2018-11-06",
  "keywords": [
    "EU28",
    "Europe",
    "potential",
    "geothermal",
    "Shallow Geothermal Heat pump",
    "Ground Source Heat pump"
  ],
  "licenses": [
    {
      "id": "CC-BY-4.0",
      "title": "Creative Commons Attribution 4.0 International",
      "url": "https://creativecommons.org/licenses/by/4.0/legalcode"
    }
  ],
  "sources": [
    {
      "title": "Thermomap project",
      "owner": "EuroGeoSurveys Secretariat",
      "path": "http://www.eurogeosurveys.org/projects/thermomap/"
    },
    {
      "title": "Reconstructed MODIS Land Surface Temperature Dataset",
      "owner": "Fondazione Edmund Mach",
      "web": "http://gis.cri.fmach.it/"
    },
    {
      "title": "Commission decision of 1 March 2013",
      "owner": "European Commission",
      "web": "https://eur-lex.europa.eu/legal-content/EN/TXT/HTML/?uri=CELEX:32013D0114&from=EN"
    }
  ],
  "contributors": [
    {
      "title": "Giulia Garegnani",
      "email": "Giulia.Garegnani@eurac.edu",
      "role": "author",
      "organization": "Eurac Research"
    },
    {
      "title": "Antonio Novelli",
      "email": "Antonio.Novelli@eurac.edu",
      "role": "author",
      "organization": "Eurac Research"
    },
    {
      "title": "Pietro Zambelli",
      "email": "Pietro.Zambelli@eurac.edu",
      "role": "author",
      "organization": "Eurac Research"
    }
  ],
  "resources": [
    {
      "name": "geo_energy_pot",
      "title": "Geothermal energy potential",
      "path": "data/output_potential_energy.tif",
      "description": "The data show the potential of shallow geothermal energy computed through r.green.gshp.theorethical for the EU28 area",
      "format": "tif",
      "unit": "MWh/year",
      "raster": {
        "epsg": "4326"
      }
    },
    {
      "name": "geo_power_pot",
      "title": "Geothermal power potential",
      "path": "data/output_potential_power.tif",
      "description": "The data show the potential of shallow geothermal energy computed through r.green.gshp.theorethical for the EU28 area",
      "format": "tif",
      "unit": "W",
      "raster": {
        "epsg": "4326"
      }
    },
    {
      "name": "conductivity",
      "title": "Ground conductivity",
      "path": "data/input_conductivity.tif",
      "description": "The data show the ground conductivity derived from the shape file of Thermomap project for the Eusalp region",
      "format": "tif",
      "unit": "W/(m K)",
      "raster": {
        "epsg": "4326"
      }
    },
    {
      "name": "ground_temperature",
      "title": "Land surface temperature",
      "path": "data/input_temperature.tif",
      "description": "The data show the land surface temperature from MODIS",
      "note": "The land surface temperature has been used as approximation of the ground temperature for the geothermal energy potential computation",
      "format": "tif",
      "unit": "\u00b0C",
      "raster": {
        "epsg": "4326"
      }
    },
    {
      "name": "climate_zones",
      "title": "Climate zones",
      "path": "data/input_climate_zones.tif",
      "description": "The data show the climate zones for Europe derived from the Commission decision of 1 March 2013",
      "note": "Manually digitilzed from directive, 0 for warmer climate, 1 for average and 2 for colder climate",
      "format": "tif",
      "unit": "-",
      "raster": {
        "epsg": "4326"
      }
    },
    {
      "name": "season_length",
      "title": "length of the heting season",
      "path": "data/input_season_length.tif",
      "description": "The data show the season heating length in hours for Europe derived from the Commission decision of 1 March 2013",
      "note": "2470 hours for warmer climate,  2070 hours for average and 1340 hours for colder climate",
      "format": "tif",
      "unit": "h",
      "raster": {
        "epsg": "4326"
      }
    }
  ],
  "id": ""
}